<svg width="359" height="303" viewBox="0 0 359 303" fill="none" xmlns="http://www.w3.org/2000/svg">
<path opacity="0.1" d="M172.871 -60.0081C179.343 -31.4845 193.699 -5.47226 214.387 15.2157C215.113 15.942 215.85 16.6574 216.591 17.3693C174.183 12.2162 130.759 21.6795 94.3301 44.5649C92.4936 45.7191 91.3795 47.7346 91.3773 49.9049C91.3757 52.0773 92.4898 54.1031 94.3215 55.2637C124.296 74.2983 158.87 84.4188 194.304 84.5305C196.985 84.5405 199.667 84.4852 202.349 84.379C193.345 91.0748 184.798 98.4402 176.791 106.448C145.796 137.443 124.333 176.446 114.721 219.242C114.245 221.359 114.889 223.575 116.426 225.111C117.963 226.648 120.179 227.292 122.295 226.816C165.092 217.204 204.095 195.741 235.089 164.747C243.098 156.738 250.463 148.192 257.159 139.187C257.053 141.869 256.998 144.551 257.008 147.23C257.12 182.667 267.24 217.242 286.274 247.216C287.436 249.049 289.461 250.163 291.633 250.161C293.803 250.158 295.819 249.045 296.973 247.208C319.858 210.779 329.322 167.356 324.169 124.947C324.88 125.687 325.595 126.424 326.322 127.151C347.01 147.839 373.022 162.195 401.545 168.666C403.664 169.147 405.878 168.508 407.411 166.975C408.945 165.442 409.583 163.227 409.103 161.109C402.884 133.702 389.658 109.05 370.543 88.9286C379.672 88.4672 388.708 86.8377 397.558 84.0404C399.627 83.3869 401.214 81.7154 401.762 79.616C402.308 77.5158 401.739 75.2787 400.254 73.6903C399.441 72.8207 398.616 71.9689 397.778 71.1309C374.7 48.0543 342.286 36.8571 310.383 40.1101L354.12 -3.62671C356.588 -6.09492 356.584 -10.1011 354.11 -12.5752C351.636 -15.0492 347.629 -15.054 345.161 -12.5858L301.426 31.149C304.68 -0.753165 293.485 -33.1639 270.406 -56.2433C269.568 -57.0806 268.713 -57.9069 267.846 -58.7188C266.258 -60.2034 264.021 -60.7733 261.921 -60.2258C259.821 -59.679 258.15 -58.0922 257.497 -56.0232C254.695 -47.1621 253.064 -38.1103 252.605 -28.9683C232.508 -47.9367 207.405 -61.447 180.428 -67.5682C178.309 -68.0491 176.095 -67.4102 174.562 -65.877C173.029 -64.3438 172.391 -62.126 172.871 -60.0081ZM194.319 71.8753C164.792 71.7817 135.907 64.2362 110.151 49.9665C149.063 28.7183 195.209 23.0028 238.369 34.3746C250.899 37.6777 262.982 42.3562 274.454 48.322C257.378 53.3857 241.018 60.3757 225.66 69.1386C215.352 70.9876 204.815 71.9146 194.319 71.8753ZM129.588 211.95C139.62 175.457 158.903 142.255 185.75 115.408C212.597 88.5611 245.799 69.2782 282.293 59.2456C272.26 95.7392 252.977 128.942 226.131 155.788C199.284 182.635 166.081 201.918 129.588 211.95ZM291.573 231.389C277.303 205.632 269.757 176.746 269.665 147.217C269.626 136.727 270.552 126.19 272.401 115.877C281.163 100.519 288.153 84.1595 293.217 67.0837C299.183 78.5558 303.862 90.639 307.164 103.169C318.536 146.33 312.821 192.476 291.573 231.389ZM335.262 118.214C329.29 112.242 323.859 105.729 319.095 98.8539C315.536 85.6837 310.565 72.9793 304.256 60.9121C321 66.6693 336.642 75.5221 350.106 86.9694C350.203 87.0528 350.304 87.1327 350.407 87.2093C371.188 104.951 386.125 127.732 394.027 153.585C371.885 146.786 351.734 134.686 335.262 118.214ZM382.999 74.7002C374.346 76.3737 365.543 76.8078 356.701 76.025C344.823 66.2013 331.461 58.1945 317.202 52.297C340.949 51.2625 364.615 59.1804 382.999 74.7002ZM289.242 24.335C283.345 10.0766 275.338 -3.28331 265.516 -15.1613C264.733 -24.0033 265.166 -32.8074 266.84 -41.4599C282.356 -23.0772 290.275 0.589859 289.242 24.335ZM254.329 -8.86941C254.407 -8.76606 254.488 -8.66408 254.572 -8.56625C266.019 4.89963 274.872 20.5396 280.629 37.2828C268.561 30.9743 255.857 26.0031 242.686 22.4439C235.811 17.6806 229.299 12.2494 223.326 6.27648C206.854 -10.1958 194.753 -30.3469 187.956 -52.488C213.808 -44.5854 236.585 -29.6474 254.329 -8.86941Z" fill="#719430"/>
</svg>
