<svg width="48" height="48" viewBox="0 0 48 48" fill="none" xmlns="http://www.w3.org/2000/svg">
<path fill-rule="evenodd" clip-rule="evenodd" d="M0 23.5331C0 10.5367 10.536 0 23.5331 0C36.5301 0 47.0662 10.5367 47.0662 23.5331C47.0662 36.5301 36.5301 47.0662 23.5331 47.0662C10.536 47.0662 0 36.5301 0 23.5331ZM25.7956 24.6149V36H21.5386V24.6065H18V20.1489H21.5308V16.8775C21.5308 13.0728 23.6877 11.0002 26.8291 11.0002C27.8882 10.9958 28.9468 11.0547 30 11.1767V15.1509H27.8355C26.1273 15.1509 25.7956 16.0316 25.7956 17.3179V20.1572H29.8779L29.3496 24.6149H25.7956Z" fill="#3B589E"/>
</svg>
