<svg width="36" height="35" viewBox="0 0 36 35" fill="none" xmlns="http://www.w3.org/2000/svg">
<path fill-rule="evenodd" clip-rule="evenodd" d="M26.668 14.3354C26.9215 19.9854 22.7086 26.2848 15.2503 26.2848C12.9819 26.2848 10.8704 25.6194 9.09278 24.4797C11.2235 24.7309 13.3509 24.1401 15.0395 22.8161C13.2821 22.7839 11.7984 21.6225 11.2875 20.0267C11.9168 20.147 12.5359 20.1119 13.1012 19.9584C11.1692 19.5697 9.83606 17.8296 9.87936 15.9687C10.4211 16.2694 11.0407 16.4503 11.6993 16.4705C9.91015 15.2755 9.40356 12.9133 10.4562 11.1078C12.4368 13.5383 15.3965 15.1374 18.7353 15.3053C18.1498 12.7921 20.0559 10.3727 22.6485 10.3727C23.8041 10.3727 24.848 10.86 25.5802 11.6408C26.4953 11.4609 27.355 11.1266 28.131 10.6662C27.8313 11.6043 27.1943 12.3918 26.3649 12.8883C27.1775 12.7916 27.9515 12.5756 28.6722 12.2562C28.1339 13.062 27.4527 13.7692 26.668 14.3354ZM17.9579 0.000366211C8.3929 0.000366211 0.638672 7.75411 0.638672 17.3196C0.638672 26.8852 8.3929 34.6389 17.9579 34.6389C27.523 34.6389 35.2772 26.8852 35.2772 17.3196C35.2772 7.75411 27.523 0.000366211 17.9579 0.000366211Z" fill="white"/>
</svg>
